BriHeart
…
filtered_data %>%
  summarize(std = sd(heart_rate), avg = mean(heart_rate))

## # A tibble: 1 x 2
##     std   avg
##   <dbl> <dbl>
## 1  21.1  81.4

filtered_data %>%
  group_by(heart_rate) %>%
  summarize(count = n()) %>%
  arrange(desc(count))

## # A tibble: 110 x 2
##    heart_rate count
##         <int> <int>
##  1         67   118
##  2         55    99
##  3         88    95
##  4         54    88
##  5         91    75
##  6         62    74
##  7         65    63
##  8         64    60
##  9         87    59
## 10         60    58
## # ... with 100 more rows
…
